﻿General Information,,,,,,,,,,,,,,,Attachment,,,Images (URL),,,,,,Techinical Spec,,,,,,,,,,,,Feature Spec,,,,,,,,,,,,
Care Area,Category,Brand,Product Name(Primary),Product Name(Secondary),Product Code,Product Model,Product Registration,Product Description,Hash Tag,Unit,Price,Packaging,Min of Order,Vendor Name,Brochure attachment (URL),Video attachement (URL),Certificate attachment (URL),Image 1:,Image 2:,Image 3:,Image 4:,Image 5:,Image 6:,label 1,value 1,label 2,value 2,label 3,value 3,label 4,value 4,label 5,value 5,label 6 ,value 6,label 1,value 1,label 2,value 2,label 3,value 3,label 4,value 4,label 5,value 5,label 6 ,value 6,
Patient Support System,OTHERS,HILL-ROM,Centuris 病床,Centuris Bed,PC0001,PM0001,PRN001,一个经济实惠的优质护理选择 Centuri bed众多的功能和人性化的设计帮助提供更安全的患者移动性和便于照料者使用。它符合最新的国际监管要求- IEC/ EN60601-2-52针对于基本安全和基本性能的成人病床。,#Bed,unit,100.99,1 unit,1,IDSMED,https://www.idsmed.com/uploads/attachment/1531968802629885126[Brochure]-Hill-Rom-Centuris-Bed.pdf,https://youtu.be/B_ZutLp_jiM,0,https://www.idsmed.com/uploads/product/1531968802585871636centuris-bed-1.jpg,0,0,0,0,0,Length—fully retracted ,220cm,Length—fully extended ,230 cm,Sleep deck length ,196 cm,Minimum width—with siderails raised ,100 cm,Maximum width—with siderail stored ,105.5 cm,Sleep deck width ,86.4 cm,0,0,0,0,0,0,0,0,0,0,0,0,
,,,4 Motor Bed,,,PA-54100A,,4 Motor,,,,,,,,,,,,,,,,Width,W830,Caster,Single w/stopper,Caster lock,Diagnal,Board,Plain,,,,,,,,,,,,,,,,,
,,,4 Motor Bed,,,PA-54100B,,4 Motor,,,,,,,,,,,,,,,,Width,W830,Caster,Single w/stopper,Caster lock,Diagnal,Board,Blue,,,,,,,,,,,,,,,,,
,,,4 Motor Bed,,,PA-54100C,,4 Motor,,,,,,,,,,,,,,,,Width,W830,Caster,Single w/stopper,Caster lock,Diagnal,Board,Medium oak,,,,,,,,,,,,,,,,,
,,,4 Motor Bed,,,PA-54100D,,4 Motor,,,,,,,,,,,,,,,,Width,W830,Caster,Single w/stopper,Caster lock,Diagnal,Board,Green,,,,,,,,,,,,,,,,,
,,,3 Motor Bed,,,PA-53100A,,3 Motor,,,,,,,,,,,,,,,,Width,W830,Caster,Single w/stopper,Caster lock,Diagnal,Board,Plain,,,,,,,,,,,,,,,,,
,,,3 Motor Bed,,,PA-53100B,,3 Motor,,,,,,,,,,,,,,,,Width,W830,Caster,Single w/stopper,Caster lock,Diagnal,Board,Blue,,,,,,,,,,,,,,,,,
,,,3 Motor Bed,,,PA-53100C,,3 Motor,,,,,,,,,,,,,,,,Width,W830,Caster,Single w/stopper,Caster lock,Diagnal,Board,Medium oak,,,,,,,,,,,,,,,,,
,,,3 Crank Bed,,,PA-59100A,,3 Crank,,,,,,,,,,,,,,,,Width,W830,Caster,Single w/stopper,Caster lock,Diagnal,Board,Plain,,,,,,,,,,,,,,,,,
,,,3 Crank Bed,,,PA-59100B,,3 Crank,,,,,,,,,,,,,,,,Width,W830,Caster,Single w/stopper,Caster lock,Diagnal,Board,Blue,,,,,,,,,,,,,,,,,
,,,3 Crank Bed,,,PA-59100C,,3 Crank,,,,,,,,,,,,,,,,Width,W830,Caster,Single w/stopper,Caster lock,Diagnal,Board,Medium oak,,,,,,,,,,,,,,,,,
,,,,,,,,,,,,,,,,,,,,,,,,,,,,,,,,,,,,,,,,,,,,,,,,
,,,,,,,,,,,,,,,,,,,,,,,,,,,,,,,,,,,,,,,,,,,,,,,,
,,,,,,,,,,,,,,,,,,,,,,,,,,,,,,,,,,,,,,,,,,,,,,,,
,,,,,,,,,,,,,,,,,,,,,,,,,,,,,,,,,,,,,,,,,,,,,,,,
,,,,,,,,,,,,,,,,,,,,,,,,,,,,,,,,,,,,,,,,,,,,,,,,
,,,,,,,,,,,,,,,,,,,,,,,,,,,,,,,,,,,,,,,,,,,,,,,,
,,,,,,,,,,,,,,,,,,,,,,,,,,,,,,,,,,,,,,,,,,,,,,,,
,,,,,,,,,,,,,,,,,,,,,,,,,,,,,,,,,,,,,,,,,,,,,,,,
,,,,,,,,,,,,,,,,,,,,,,,,,,,,,,,,,,,,,,,,,,,,,,,,
,,,,,,,,,,,,,,,,,,,,,,,,,,,,,,,,,,,,,,,,,,,,,,,,
,,,,,,,,,,,,,,,,,,,,,,,,,,,,,,,,,,,,,,,,,,,,,,,,
